/home/accidental-genius/NetBeansProjects/Server/src/main/java/com/application/util/KeyGenerator.java
/home/accidental-genius/NetBeansProjects/Server/src/main/java/com/application/server/AdminServer.java
/home/accidental-genius/NetBeansProjects/Server/src/main/java/com/application/server/ClientModel.java
/home/accidental-genius/NetBeansProjects/Server/src/main/java/com/application/server/Server.java
/home/accidental-genius/NetBeansProjects/Server/src/main/java/com/application/server/Client.java
/home/accidental-genius/NetBeansProjects/Server/src/main/java/com/application/server/ClientHandler.java
